<svg width="105.9" height="20" viewBox="0 0 1059 200" xmlns="http://www.w3.org/2000/svg">
  <linearGradient id="a" x2="0" y2="100%">
    <stop offset="0" stop-opacity=".1" stop-color="#EEE"/>
    <stop offset="1" stop-opacity=".1"/>
  </linearGradient>
  <mask id="m"><rect width="1059" height="200" rx="30" fill="#FFF"/></mask>
  <g mask="url(#m)">
    <rect width="628" height="200" fill="#555"/>
    <rect width="431" height="200" fill="#94E" x="628"/>
    <rect width="1059" height="200" fill="url(#a)"/>
  </g>
  <g fill="#fff" text-anchor="start" font-family="Verdana,DejaVu Sans,sans-serif" font-size="110">
    <text x="60" y="148" textLength="528" fill="#000" opacity="0.25">download</text>
    <text x="50" y="138" textLength="528">download</text>
    <text x="683" y="148" textLength="331" fill="#000" opacity="0.25">image</text>
    <text x="673" y="138" textLength="331">image</text>
  </g>
  
</svg>